{
  "project_info": {
    "project_number": "241142798782",
    "firebase_url": "https://to-do-list-42bfb.firebaseio.com",
    "project_id": "to-do-list-42bfb",
    "storage_bucket": "to-do-list-42bfb.appspot.com"
  },
  "client": [
    {
      "client_info": {
        "mobilesdk_app_id": "1:241142798782:android:51e8714c38e69b90f201ef",
        "android_client_info": {
          "package_name": "com.to_do_list"
        }
      },
      "oauth_client": [
        {
          "client_id": "241142798782-d07vf9hqqb1a8s4l4r6sfhlaokachv44.apps.googleusercontent.com",
          "client_type": 3
        }
      ],
      "api_key": [
        {
          "current_key": "AIzaSyDZSs7M7RZCBUampIQg_pcs19yCv0Dq4Fk"
        }
      ],
      "services": {
        "appinvite_service": {
          "other_platform_oauth_client": [
            {
              "client_id": "241142798782-d07vf9hqqb1a8s4l4r6sfhlaokachv44.apps.googleusercontent.com",
              "client_type": 3
            }
          ]
        }
      }
    }
  ],
  "configuration_version": "1"
}